%YAML 1.1
%TAG !u! tag:unity3d.com,2011:
--- !u!1045 &1
EditorBuildSettings:
  m_ObjectHideFlags: 0
  serializedVersion: 2
  m_Scenes:
  - enabled: 1
    path: Assets/Scenes/StartScene.unity
    guid: 391ca570de7bea6418d5c1a304a8f8e9
  - enabled: 1
    path: Assets/Scenes/Scene_01.unity
    guid: 4297ab175bbac7b4da5ed07ae00b8c41
  - enabled: 0
    path: 
    guid: 00000000000000000000000000000000
  - enabled: 1
    path: Assets/Scenes/GameOver.unity
    guid: 0dd8229bc2c17b34487432d289c232f7
  - enabled: 1
    path: Assets/Scenes/WinScene.unity
    guid: 4a361d1f82a5af54696b864e52d4f8ba
  m_configObjects:
    Unity.XR.Oculus.Settings: {fileID: 11400000, guid: d5c92827a19e8424cae32491cb58f84c, type: 2}
    com.unity.xr.management.loader_settings: {fileID: 11400000, guid: 37e3aa2513545074f9b1b24cee5fb3f7, type: 2}
